\relax 
\providecommand\hyper@newdestlabel[2]{}
\providecommand\HyperFirstAtBeginDocument{\AtBeginDocument}
\HyperFirstAtBeginDocument{\ifx\hyper@anchor\@undefined
\global\let\oldcontentsline\contentsline
\gdef\contentsline#1#2#3#4{\oldcontentsline{#1}{#2}{#3}}
\global\let\oldnewlabel\newlabel
\gdef\newlabel#1#2{\newlabelxx{#1}#2}
\gdef\newlabelxx#1#2#3#4#5#6{\oldnewlabel{#1}{{#2}{#3}}}
\AtEndDocument{\ifx\hyper@anchor\@undefined
\let\contentsline\oldcontentsline
\let\newlabel\oldnewlabel
\fi}
\fi}
\global\let\hyper@last\relax 
\gdef\HyperFirstAtBeginDocument#1{#1}
\providecommand\HyField@AuxAddToFields[1]{}
\providecommand\HyField@AuxAddToCoFields[2]{}
\select@language{english}
\@writefile{toc}{\select@language{english}}
\@writefile{lof}{\select@language{english}}
\@writefile{lot}{\select@language{english}}
\@writefile{toc}{\contentsline {section}{\numberline {1}Introduction}{1}{section.1}}
\@writefile{toc}{\contentsline {section}{\numberline {2}Design of the Visualization}{1}{section.2}}
\@writefile{lof}{\contentsline {figure}{\numberline {1}{\ignorespaces Classdiagram of the project, extended with the processes for generating the input data files.}}{2}{figure.1}}
\newlabel{cd}{{1}{2}{Classdiagram of the project, extended with the processes for generating the input data files}{figure.1}{}}
\@writefile{toc}{\contentsline {subsection}{\numberline {2.1}Tree Hierarchy}{2}{subsection.2.1}}
\@writefile{toc}{\contentsline {subsection}{\numberline {2.2}Simplex Space}{3}{subsection.2.2}}
\@writefile{toc}{\contentsline {subsection}{\numberline {2.3}Interactions}{3}{subsection.2.3}}
\@writefile{toc}{\contentsline {section}{\numberline {3}Results}{4}{section.3}}
\@writefile{toc}{\contentsline {subsection}{\numberline {3.1}How similar are two given POS tags?}{4}{subsection.3.1}}
\@writefile{toc}{\contentsline {subsection}{\numberline {3.2}How much do the simplex and tree visualizations agree with each other?}{4}{subsection.3.2}}
\@writefile{lof}{\contentsline {figure}{\numberline {2}{\ignorespaces The noun family.}}{5}{figure.2}}
\newlabel{nn1}{{2}{5}{The noun family}{figure.2}{}}
\@writefile{lof}{\contentsline {figure}{\numberline {3}{\ignorespaces The verb family.}}{5}{figure.3}}
\newlabel{vb1}{{3}{5}{The verb family}{figure.3}{}}
\@writefile{lof}{\contentsline {figure}{\numberline {4}{\ignorespaces The modifier family.}}{5}{figure.4}}
\newlabel{jj1}{{4}{5}{The modifier family}{figure.4}{}}
\@writefile{toc}{\contentsline {section}{\numberline {A}Work Division}{6}{appendix.A}}
\@writefile{toc}{\contentsline {section}{\numberline {B}Terminology}{6}{appendix.B}}
\@writefile{toc}{\contentsline {section}{\numberline {C}Tagset of the Brown Corpus}{7}{appendix.C}}
\gdef \LT@i {\LT@entry 
    {1}{40.45274pt}\LT@entry 
    {1}{54.67912pt}\LT@entry 
    {1}{140.0374pt}\LT@entry 
    {1}{211.16928pt}}
\@writefile{lot}{\contentsline {table}{\numberline {1}{25 most frequent tags from the Brown corpus tagset.}}{8}{table.1}}
\newlabel{brown}{{1}{8}{25 most frequent tags from the Brown corpus tagset}{table.1}{}}
\@writefile{toc}{\contentsline {section}{\numberline {D}Technicalities}{8}{appendix.D}}
\@writefile{toc}{\contentsline {subsection}{\numberline {D.1}Methods for Producing the Similarity Matrix}{8}{subsection.D.1}}
\newlabel{apx:matrix}{{D.1}{8}{Methods for Producing the Similarity Matrix}{subsection.D.1}{}}
\citation{christodoulopoulos2010}
\bibdata{christodoulopoulos2010}
\bibcite{christodoulopoulos2010}{{1}{2010}{{Christodoulopoulos et~al.}}{{}}}
\bibstyle{apalike}
\@writefile{toc}{\contentsline {subsection}{\numberline {D.2}Mapping the Similarity Matrix to Three Dimensions}{9}{subsection.D.2}}
\newlabel{apx:m3}{{D.2}{9}{Mapping the Similarity Matrix to Three Dimensions}{subsection.D.2}{}}
\@writefile{toc}{\contentsline {subsection}{\numberline {D.3}Mapping from Three Dimensions to Two Dimensions}{9}{subsection.D.3}}
\newlabel{apx:d32}{{D.3}{9}{Mapping from Three Dimensions to Two Dimensions}{subsection.D.3}{}}
