This is BibTeX, Version 0.99d (TeX Live 2013/Debian)
Capacity: max_strings=35307, hash_size=35307, hash_prime=30011
The top-level auxiliary file: report.aux
The style file: apalike.bst
Database file #1: christodoulopoulos2010.bib
You've used 1 entry,
            1935 wiz_defined-function locations,
            475 strings with 3921 characters,
and the built_in function-call counts, 353 in all, are:
= -- 31
> -- 18
< -- 0
+ -- 6
- -- 6
* -- 27
:= -- 71
add.period$ -- 3
call.type$ -- 1
change.case$ -- 8
chr.to.int$ -- 1
cite$ -- 1
duplicate$ -- 13
empty$ -- 21
format.name$ -- 7
if$ -- 63
int.to.chr$ -- 1
int.to.str$ -- 0
missing$ -- 1
newline$ -- 8
num.names$ -- 3
pop$ -- 8
preamble$ -- 1
purify$ -- 8
quote$ -- 0
skip$ -- 11
stack$ -- 0
substring$ -- 12
swap$ -- 1
text.length$ -- 0
text.prefix$ -- 0
top$ -- 0
type$ -- 6
warning$ -- 0
while$ -- 2
width$ -- 0
write$ -- 14
